{
    "Categories": "Qt;KDE;X-KDE-information;",
    "KPlugin": {
        "BugReportUrl": "https://bugs.kde.org/enter_bug.cgi?product=kinfocenter&component=general",
        "Description": "Samba status monitor",
        "Description[ar]": "مراقب حالة سامبا",
        "Description[az]": "Samba serverinin vəziyyəti",
        "Description[bg]": "Монитор на Samba статус",
        "Description[ca@valencia]": "Controlador de l'estat de Samba",
        "Description[ca]": "Controlador de l'estat de Samba",
        "Description[cs]": "Monitor stavu Samby",
        "Description[de]": "Samba-Statusmonitor",
        "Description[en_GB]": "Samba status monitor",
        "Description[es]": "Monitor del estado de Samba",
        "Description[et]": "Samba oleku jälgimine",
        "Description[eu]": "Samba-ren egoeraren begiralea",
        "Description[fi]": "Samban tilan valvonta",
        "Description[fr]": "Superviseur de l'état de Samba",
        "Description[ia]": "Monitor de stato de Samba",
        "Description[id]": "Pemantau status Samba",
        "Description[is]": "Eftirlit með stöðu Samba",
        "Description[it]": "Monitor dello stato di Samba",
        "Description[ja]": "Samba の状態を監視",
        "Description[ka]": "Samba-ს სტატუსის მონიტორი",
        "Description[ko]": "Samba 상태 모니터",
        "Description[lt]": "Samba būsenos prižiūryklė",
        "Description[nl]": "Sambastatusmonitor",
        "Description[nn]": "Overvaking av Samba-status",
        "Description[pl]": "Monitor stanu Samby",
        "Description[pt]": "Monitor do estado do Samba",
        "Description[pt_BR]": "Monitor de estado do Samba",
        "Description[ro]": "Monitor de stare Samba",
        "Description[ru]": "Состояние сервера Samba",
        "Description[sk]": "Monitor stavu Samby",
        "Description[sl]": "Nadzornik stanja Sambe",
        "Description[sv]": "Samba-statusövervakning",
        "Description[ta]": "சம்பா நிலை காட்டி",
        "Description[tr]": "Samba durumu izleyici",
        "Description[uk]": "Монітор стану Samba",
        "Description[vi]": "Giám sát trạng thái Samba",
        "Description[x-test]": "xxSamba status monitorxx",
        "Description[zh_CN]": "SAMBA 状态监视器",
        "Description[zh_TW]": "Samba 狀態監視器",
        "Icon": "preferences-system-network-sharing",
        "Name": "Samba Status",
        "Name[af]": "Samba Status",
        "Name[ar]": "حالة سامبا",
        "Name[as]": "Samba ৰ অৱস্থা",
        "Name[az]": "Samba serveri",
        "Name[be@latin]": "Stanovišča słužby „Samba”",
        "Name[be]": "Стан Samba",
        "Name[bg]": "Сървър Samba",
        "Name[bn]": "সাম্বা স্ট্যাটাস",
        "Name[bn_IN]": "Samba-র অবস্থা",
        "Name[br]": "Saviad Samba",
        "Name[bs]": "Stanje Sambe",
        "Name[ca@valencia]": "Estat de Samba",
        "Name[ca]": "Estat de Samba",
        "Name[cs]": "Stav Samby",
        "Name[csb]": "Sztaus Samba",
        "Name[cy]": "Cyflwr Samba",
        "Name[da]": "Samba-status",
        "Name[de]": "Samba-Status",
        "Name[el]": "Κατάσταση samba",
        "Name[en_GB]": "Samba Status",
        "Name[eo]": "Samba stato",
        "Name[es]": "Estado de Samba",
        "Name[et]": "Samba olek",
        "Name[eu]": "Samba-ren egoera",
        "Name[fa]": "وضعیت Samba",
        "Name[fi]": "Samban tila",
        "Name[fr]": "État de Samba",
        "Name[fy]": "Samba-tastân",
        "Name[ga]": "Stádas Samba",
        "Name[gl]": "Estado de Samba",
        "Name[gu]": "સામ્બા સ્થિતિ",
        "Name[he]": "מצב Samba",
        "Name[hi]": "साम्बा स्थिति",
        "Name[hne]": "साम्बा स्थिति",
        "Name[hr]": "Stanje Sambe",
        "Name[hsb]": "Samba status",
        "Name[hu]": "Samba",
        "Name[ia]": "Stato de Samba",
        "Name[id]": "Status Samba",
        "Name[is]": "Staða Samba",
        "Name[it]": "Stato di Samba",
        "Name[ja]": "Samba の状態",
        "Name[ka]": "Samba-ს სტატუსი",
        "Name[kk]": "Samba сервері ",
        "Name[km]": "ស្ថានភាព​ Samba",
        "Name[kn]": "ಸಾಂಬಾ ಸ್ಥಿತಿಗತಿ",
        "Name[ko]": "Samba 상태",
        "Name[ku]": "Rewşa Sambayê",
        "Name[lt]": "Samba būsena",
        "Name[lv]": "Samba statuss",
        "Name[mai]": "साम्बा स्थिति",
        "Name[mk]": "Статус на Samba",
        "Name[ml]": "സാംബാ സ്ഥിതിവിവരം",
        "Name[mr]": "साम्बा स्थिति",
        "Name[ms]": "Status Samba",
        "Name[nb]": "Samba-status",
        "Name[nds]": "Samba-Status",
        "Name[ne]": "साम्बा वस्तुस्थिति",
        "Name[nl]": "Samba-status",
        "Name[nn]": "Samba-status",
        "Name[or]": "ସାମ୍ବା ସ୍ଥିତି",
        "Name[pa]": "ਸਾਂਬਾ ਹਾਲਤ",
        "Name[pl]": "Stan Samby",
        "Name[pt]": "Estado do Samba",
        "Name[pt_BR]": "Estado do Samba",
        "Name[ro]": "Stare Samba",
        "Name[ru]": "Сервер Samba",
        "Name[se]": "Samba stáhtus",
        "Name[si]": "සම්බා තත්ත්වය",
        "Name[sk]": "Stav Samby",
        "Name[sl]": "Stanje Sambe",
        "Name[sr@ijekavian]": "Стање Самбе",
        "Name[sr@ijekavianlatin]": "Stanje Sambe",
        "Name[sr@latin]": "Stanje Sambe",
        "Name[sr]": "Стање Самбе",
        "Name[sv]": "Samba-status",
        "Name[ta]": "சம்பா நிலை",
        "Name[te]": "సాంబా స్థితి",
        "Name[tg]": "Вазъияти Samba",
        "Name[th]": "สถานะของ Samba",
        "Name[tr]": "Samba Durumu",
        "Name[ug]": "Samba ھالىتى",
        "Name[uk]": "Стан Samba",
        "Name[uz@cyrillic]": "Samba'нинг ҳолати",
        "Name[uz]": "Samba'ning holati",
        "Name[vi]": "Trạng thái Samba",
        "Name[wa]": "Estat di Samba",
        "Name[x-test]": "xxSamba Statusxx",
        "Name[xh]": "Isimo se Samba",
        "Name[zh_CN]": "SAMBA 状态",
        "Name[zh_TW]": "Samba 狀態"
    },
    "X-DocPath": "kinfocenter/network.html#smbstatus",
    "X-KDE-KInfoCenter-Category": "network_information",
    "X-KDE-Keywords": "SMB,SAMBA,Windows network,LAN,System Information",
    "X-KDE-Keywords[ar]": "SMB,سامبا,شبكة وندوز,LAN,معلومات النّظام",
    "X-KDE-Keywords[ast]": "SMB,SAMBA,Rede de Windows,LAN,Información del sistema",
    "X-KDE-Keywords[az]": "SMB,SAMBA,Windows network,LAN,System Information,Windows şəbəkəsi,lokal şəbəkə,lokal hesablama şəbəkəsi,LHŞ",
    "X-KDE-Keywords[bs]": "SMB,SAMBA,Windows umrežavanje,LAN,Sistemske informacije",
    "X-KDE-Keywords[ca@valencia]": "SMB,SAMBA,Xarxa Windows,LAN,Informació del sistema",
    "X-KDE-Keywords[ca]": "SMB,SAMBA,Xarxa Windows,LAN,Informació del sistema",
    "X-KDE-Keywords[cs]": "SMB,SAMBA,Síť Windows,LAN,Informace o systému",
    "X-KDE-Keywords[da]": "SMB,SAMBA,Windows netværk,LAN,Systeminformation",
    "X-KDE-Keywords[de]": "SMB,Samba,Windows-Netzwerk,LAN,Systeminformationen",
    "X-KDE-Keywords[el]": "SMB,SAMBA,δίκτυο Windows,LAN,πληροφορίες συστήματος",
    "X-KDE-Keywords[en_GB]": "SMB,SAMBA,Windows network,LAN,System Information",
    "X-KDE-Keywords[es]": "SMB,SAMBA,Red de Windows,LAN,Información sobre el sistema",
    "X-KDE-Keywords[et]": "SMB,SAMBA,Windowsi võrk,LAN,süsteemi teave",
    "X-KDE-Keywords[eu]": "SMB,SAMBA,Windows sarea,LAN,sistema-informazioa",
    "X-KDE-Keywords[fi]": "SMB,SAMBA,Windows-verkko,LAN,järjestelmätiedot",
    "X-KDE-Keywords[fr]": "SMB, SAMBA, réseau Windows, LAN, Informations système",
    "X-KDE-Keywords[ga]": "SMB,SAMBA,Líonra Windows,LAN,líonra logánta,Eolas faoin Chóras",
    "X-KDE-Keywords[gl]": "SMB,SAMBA,Rede de Windows,LAN,Información do sistema",
    "X-KDE-Keywords[hu]": "SMB,SAMBA,Windows hálózat,LAN,Rendszerinformáció",
    "X-KDE-Keywords[ia]": "SMB,SAMBA,rete de Windows,LAN,Information de systema",
    "X-KDE-Keywords[id]": "SMB,SAMBA,jaringan Windows,LAN,Informasi Sistem",
    "X-KDE-Keywords[it]": "SMB,SAMBA,rete di Windows,LAN,Informazioni di sistema",
    "X-KDE-Keywords[kk]": "SMB,SAMBA,Windows network,LAN,System Information",
    "X-KDE-Keywords[km]": "SMB,SAMBA,Windows network,LAN,System Information",
    "X-KDE-Keywords[ko]": "SMB,SAMBA,Windows network,LAN,System Information,윈도우,윈도,윈도우 네트워크,윈도 네트워크,시스템 정보",
    "X-KDE-Keywords[lt]": "SMB,SAMBA,Windows tinklas,LAN,Sistemos informacija,informacija apie sistemą,informacija apie sistema,vietinis tinklas",
    "X-KDE-Keywords[mr]": "SMB, SAMBA, विंडोज नेटवर्क, LAN, प्रणाली माहीती",
    "X-KDE-Keywords[nb]": "SMB,SAMBA,Windows-nettverk,LAN,Systeminformasjon",
    "X-KDE-Keywords[nds]": "SMB,SAMBA,Windows-Nettwark,LAN,Systeem-Informatschonen",
    "X-KDE-Keywords[nl]": "SMB,SAMBA,Windows-netwerk,LAN,systeeminformatie",
    "X-KDE-Keywords[nn]": "SMB,SAMBA,Windows-nettverk,LAN,systeminformasjon",
    "X-KDE-Keywords[pa]": "ਸਾਂਬਾ,ਵਿੰਡੋਜ਼ ਨੈੱਟਵਰਕ,ਲੈਨ,ਸਿਸਟਮ ਜਾਣਕਾਰੀ",
    "X-KDE-Keywords[pl]": "SMB,SAMBA,Sieć Windows,LAN,Dane o systemie",
    "X-KDE-Keywords[pt]": "SMB,SAMBA,rede Windows,LAN,Informação do Sistema",
    "X-KDE-Keywords[pt_BR]": "SMB,SAMBA,Rede Windows,LAN,Informação do sistema",
    "X-KDE-Keywords[ro]": "SMB,SAMBA,rețea Windows,LAN,informații sistem,rețea locală",
    "X-KDE-Keywords[ru]": "SMB,SAMBA,Windows network,LAN,System Information,сеть Windows,локальная сеть,локальная вычислительная сеть,ЛВС",
    "X-KDE-Keywords[sk]": "SMB,SAMBA,Sieť Windows,LAN,Systémové informácie",
    "X-KDE-Keywords[sl]": "SMB,samba,omrežje Windows,lan,krajevno omrežje,sistemski podatki,podatki o sistemu",
    "X-KDE-Keywords[sr@ijekavian]": "SMB,SAMBA,Windows network,LAN,System Information,СМБ,Самба,виндоуз мрежа,ЛАН,системске информације",
    "X-KDE-Keywords[sr@ijekavianlatin]": "SMB,SAMBA,Windows network,LAN,System Information,SMB,Samba,windows mreža,LAN,sistemske informacije",
    "X-KDE-Keywords[sr@latin]": "SMB,SAMBA,Windows network,LAN,System Information,SMB,Samba,windows mreža,LAN,sistemske informacije",
    "X-KDE-Keywords[sr]": "SMB,SAMBA,Windows network,LAN,System Information,СМБ,Самба,виндоуз мрежа,ЛАН,системске информације",
    "X-KDE-Keywords[sv]": "SMB,SAMBA,Windows-nätverk,LAN,Systeminformation",
    "X-KDE-Keywords[tr]": "SMB,SAMBA,Windows ağı,LAN,Yerel Ağ,Sistem Bilgileri",
    "X-KDE-Keywords[uk]": "SMB,SAMBA,Windows network,LAN,System Information,мережа,віндоус,віндоуз,віндовс,віндовз,система,інформація,відомості",
    "X-KDE-Keywords[vi]": "SMB,SAMBA,Windows network,LAN,System Information,Mạng Windows,Thông tin hệ thống",
    "X-KDE-Keywords[x-test]": "xxSMBxx,xxSAMBAxx,xxWindows networkxx,xxLANxx,xxSystem Informationxx",
    "X-KDE-Keywords[zh_CN]": "SMB,SAMBA,Windows network,LAN,System Information,Windows 网络,网上邻居,局域网,共享,系统信息",
    "X-KDE-Keywords[zh_TW]": "SMB,SAMBA,Windows network,LAN,System Information"
}
